…
    "./data/202309 Trash Wheel Collection Data.xlsx",
    sheet = "Mr. Trash Wheel",
    range = "A2:N586",
    skip = 1) |>
  janitor::clean_names() |>
  separate(date, into = c("year", "month", "day"), convert = TRUE) |>
  mutate(
  homes_powered = (weight_tons * (500/30)),
  month = month.name[as.numeric(month)],
  trash_wheel_name = "Mr. Trash Wheel"
  )
mr_trash_wheel
```

    ## # A tibble: 584 × 15
    ##    dumpster  year month   day weight_tons volume_cubic_yards plastic_bottles
    ##       <dbl> <int> <chr> <int>       <dbl>              <dbl>           <dbl>
    ##  1        1  2014 May      16        4.31                 18            1450
    ##  2        2  2014 May      16        2.74                 13            1120
    ##  3        3  2014 May      16        3.45                 15            2450
    ##  4        4  2014 May      17        3.1                  15            2380
    ##  5        5  2014 May      17        4.06                 18             980
    ##  6        6  2014 May      20        2.71                 13            1430
    ##  7        7  2014 May      21        1.91                  8             910
    ##  8        8  2014 May      28        3.7                  16            3580
    ##  9        9  2014 June      5        2.52                 14            2400
    ## 10       10  2014 June     11        3.76                 18            1340
    ## # ℹ 574 more rows
    ## # ℹ 8 more variables: polystyrene <dbl>, cigarette_butts <dbl>,
    ## #   glass_bottles <dbl>, plastic_bags <dbl>, wrappers <dbl>,
    ## #   sports_balls <dbl>, homes_powered <dbl>, trash_wheel_name <chr>
…
    "./data/202309 Trash Wheel Collection Data.xlsx",
    sheet = "Professor Trash Wheel",
    range = "A2:M108",
    skip = 1) |>
  janitor::clean_names() |>
  separate(date, into = c("year", "month", "day"), convert = TRUE) |>
  mutate(
  homes_powered = (weight_tons * (500/30)),
  month = month.name[as.numeric(month)],
  prof_wheel_name = "Professor Trash Wheel"
  )
prof_trash_wheel
```

    ## # A tibble: 106 × 14
    ##    dumpster  year month      day weight_tons volume_cubic_yards plastic_bottles
    ##       <dbl> <int> <chr>    <int>       <dbl>              <dbl>           <dbl>
    ##  1        1  2017 January      2        1.79                 15            1950
    ##  2        2  2017 January     30        1.58                 15            9540
    ##  3        3  2017 February    26        2.32                 18            8350
    ##  4        4  2017 February    26        3.72                 15            8590
    ##  5        5  2017 February    28        1.45                 15            7830
    ##  6        6  2017 March       30        1.71                 15            8210
    ##  7        7  2017 April        1        1.82                 15            9830
    ##  8        8  2017 April       20        2.37                 15            9240
    ##  9        9  2017 May         10        2.64                 15            9540
    ## 10       10  2017 May         26        2.78                 15            8230
    ## # ℹ 96 more rows
    ## # ℹ 7 more variables: polystyrene <dbl>, cigarette_butts <dbl>,
    ## #   glass_bottles <dbl>, plastic_bags <dbl>, wrappers <dbl>,
    ## #   homes_powered <dbl>, prof_wheel_name <chr>
…
    "./data/202309 Trash Wheel Collection Data.xlsx",
    sheet = "Gwynnda Trash Wheel",
    range = "A2:L157",
    skip = 1) |>
  janitor::clean_names() |>
  separate(date, into = c("year", "month", "day"), convert = TRUE) |>
  mutate(
  homes_powered = (weight_tons * (500/30)),
  month = month.name[as.numeric(month)],
  gwyn_wheel_name = "Gwynnda Trash Wheel"
  )
gwyn_trash_wheel
```

    ## # A tibble: 155 × 13
    ##    dumpster  year month    day weight_tons volume_cubic_yards plastic_bottles
    ##       <dbl> <int> <chr>  <int>       <dbl>              <dbl>           <dbl>
    ##  1        1  2021 July       3        0.93                 15            1200
    ##  2        2  2021 July       7        2.26                 15            2000
    ##  3        3  2021 July       7        1.62                 15            1800
    ##  4        4  2021 July      16        1.76                 15            1000
    ##  5        5  2021 July      30        1.53                 15            2100
    ##  6        6  2021 August    11        2.06                 15            2400
    ##  7        7  2021 August    14        1.9                  15            2700
    ##  8        8  2021 August    16        2.16                 15            3000
    ##  9        9  2021 August    16        2.6                  15             980
    ## 10       10  2021 August    17        3.21                 15             240
    ## # ℹ 145 more rows
    ## # ℹ 6 more variables: polystyrene <dbl>, cigarette_butts <dbl>,
    ## #   plastic_bags <dbl>, wrappers <dbl>, homes_powered <dbl>,
    ## #   gwyn_wheel_name <chr>

Combining three datasets

``` r
trash_wheel_tidy = bind_rows(mr_trash_wheel, prof_trash_wheel, gwyn_trash_wheel)
trash_wheel_tidy
```

    ## # A tibble: 845 × 17
    ##    dumpster  year month   day weight_tons volume_cubic_yards plastic_bottles
    ##       <dbl> <int> <chr> <int>       <dbl>              <dbl>           <dbl>
    ##  1        1  2014 May      16        4.31                 18            1450
    ##  2        2  2014 May      16        2.74                 13            1120
    ##  3        3  2014 May      16        3.45                 15            2450
    ##  4        4  2014 May      17        3.1                  15            2380
    ##  5        5  2014 May      17        4.06                 18             980
    ##  6        6  2014 May      20        2.71                 13            1430
    ##  7        7  2014 May      21        1.91                  8             910
    ##  8        8  2014 May      28        3.7                  16            3580
    ##  9        9  2014 June      5        2.52                 14            2400
    ## 10       10  2014 June     11        3.76                 18            1340
    ## # ℹ 835 more rows
    ## # ℹ 10 more variables: polystyrene <dbl>, cigarette_butts <dbl>,
    ## #   glass_bottles <dbl>, plastic_bags <dbl>, wrappers <dbl>,
    ## #   sports_balls <dbl>, homes_powered <dbl>, trash_wheel_name <chr>,
    ## #   prof_wheel_name <chr>, gwyn_wheel_name <chr>
…
